{
  "Amaya Callaghan": { "three habits": ["reading ", "dancing", "swimming"] },
  "YoraSlavaMorgan": {
    "habits": ["playing", "Traveling", "swimming"]
  },
  "BronislawJettaCox":{
    "habits": ["Reading", "Music", "Exercising"]
  },"mohomeister":{
    "habits":["Traveling","Reading","watching movies"]
}
}
